module forum

go 1.17



require (
	github.com/go-sql-driver/mysql v1.6.0 // indirect
	github.com/mattn/go-sqlite3 v1.14.12 // indirect
	github.com/satori/go.uuid v1.2.0 // indirect
	golang.org/x/crypto v0.0.0-20220411220226-7b82a4e95df4 // indirect
)
